{
  "projects": [
    {
      "id": "245",
      "display_name": "AnnoTate",
      "classifications_count": 252974,
      "updated_at": "2023-03-02T05:20:22.761Z",
      "description": "Help transcribe documents from the Tate collection, and reveal the secret lives of artists.",
      "slug": "drrogg/annotate",
      "redirect": "https://anno.tate.org.uk/#/",
      "launch_approved": true,
      "completeness": 0.7233,
      "state": "finished",
      "avatar_src": "https://panoptes-uploads.zooniverse.org/project_avatar/318e2936-9fdc-4b77-a731-b61404af1da2.png",
      "links": {}
    },
    {
      "id": "11",
      "display_name": "Whales as Individuals",
      "classifications_count": 44004,
      "updated_at": "2023-03-02T05:11:00.799Z",
      "description": "Help us identify individual Humpback Whales by clueing our computer algorithms in to patterns on their tails",
      "slug": "tedcheese/whales-as-individuals",
      "redirect": "",
      "launch_approved": true,
      "completeness": 1.0,
      "state": "finished",
      "avatar_src": "https://panoptes-uploads.zooniverse.org/project_avatar/04f69d43-abec-4851-ad56-d59b99a893aa.jpeg",
      "links": {}
    },
    {
      "id": "59",
      "display_name": "Orchid Observers",
      "classifications_count": 0,
      "updated_at": "2023-03-02T04:26:58.632Z",
      "description": "Help measure the effect of climate change. Photograph and classify orchids to assist climate research.",
      "slug": "zooniverse/orchid-observers",
      "redirect": "http://orchidobservers.org",
      "launch_approved": true,
      "completeness": 0.0,
      "state": "finished",
      "avatar_src": "https://panoptes-uploads.zooniverse.org/project_avatar/d71f9499-b955-4f05-bf7a-74465db70452.jpeg",
      "links": {}
    },
    {
      "id": "60",
      "display_name": "Chimp \u0026 See Ouroboros",
      "classifications_count": 0,
      "updated_at": "2023-03-02T05:20:07.560Z",
      "description": "Discover the secret life of chimpanzees. We need your help to study, explore, and learn from thousands of videos.",
      "slug": "zooniverse/chimp-and-see-ouroboros",
      "redirect": "http://chimpandsee.org/#/",
      "launch_approved": true,
      "completeness": 0.0,
      "state": "finished",
      "avatar_src": "https://panoptes-uploads.zooniverse.org/project_avatar/ddfe31cf-2d16-48bc-835b-5ae6c727afc3.jpeg",
      "links": {}
    },
    {
      "id": "58",
      "display_name": "Science Gossip",
      "classifications_count": 0,
      "updated_at": "2023-03-02T05:18:30.984Z",
      "description": "Uncover the history of citizen science. Help us to classify their drawings and map the origins of citizen science.",
      "slug": "zooniverse/science-gossip",
      "redirect": "http://sciencegossip.org/#/",
      "launch_approved": true,
      "completeness": 0.0,
      "state": "finished",
      "avatar_src": "https://panoptes-uploads.zooniverse.org/project_avatar/7647ea52-d175-4920-b8e2-1ba595017918.jpeg",
      "links": {}
    },
    {
      "id": "56",
      "display_name": "Higgs Hunters",
      "classifications_count": 0,
      "updated_at": "2023-03-02T04:29:08.140Z",
      "description": "Uncover the building blocks of the universe. Help search for unknown exotic particles in the LHC data. ",
      "slug": "zooniverse/higgs-hunters",
      "redirect": "http://higgshunters.org/#/",
      "launch_approved": true,
      "completeness": 0.0,
      "state": "finished",
      "avatar_src": "https://panoptes-uploads.zooniverse.org/project_avatar/f6a09e22-771a-4d54-a7bf-0558d2d5cdc8.jpeg",
      "links": {}
    },
    {
      "id": "54",
      "display_name": "Floating Forests v1",
      "classifications_count": 0,
      "updated_at": "2023-03-02T04:04:40.860Z",
      "description": "Discover Floating Forests. We're studying how kelp forests grow and change. Help find these forests in images from space!",
      "slug": "zooniverse/floating-forests-v1",
      "redirect": "http://floatingforests.org",
      "launch_approved": true,
      "completeness": 0.0,
      "state": "finished",
      "avatar_src": "https://panoptes-uploads.zooniverse.org/project_avatar/d4350f1e-58b8-4a88-a7c9-56659df14635.jpeg",
      "links": {}
    },
    {
      "id": "53",
      "display_name": "Asteroid Zoo",
      "classifications_count": 0,
      "updated_at": "2023-03-02T05:15:26.531Z",
      "description": "Help us discover near-Earth asteroids: protect Earth, find potential future resources, and understand our Solar System.",
      "slug": "zooniverse/asteroid-zoo",
      "redirect": "http://asteroidzoo.org",
      "launch_approved": true,
      "completeness": 0.0,
      "state": "finished",
      "avatar_src": "https://panoptes-uploads.zooniverse.org/project_avatar/ce958017-4989-4e23-83fc-6da6056a8d0c.jpeg",
      "links": {}
    },
    {
      "id": "52",
      "display_name": "Condor Watch",
      "classifications_count": 0,
      "updated_at": "2023-03-02T05:19:41.592Z",
      "description": "California condors need your help. By tracking their location and social behavior, you can help this endangered species.",
      "slug": "zooniverse/condor-watch",
      "redirect": "http://condorwatch.org/#/",
      "launch_approved": true,
      "completeness": 0.0,
      "state": "finished",
      "avatar_src": "https://panoptes-uploads.zooniverse.org/project_avatar/816a2876-f134-41c5-bd59-08a76258d017.jpeg",
      "links": {}
    },
    {
      "id": "51",
      "display_name": "Sunspotter",
      "classifications_count": 0,
      "updated_at": "2023-03-02T05:06:53.460Z",
      "description": "Sorting out sunspots. Help us organize images by complexity to better understand the Sun’s magnetic activity.",
      "slug": "zooniverse/sunspotter",
      "redirect": "http://sunspotter.org/#/",
      "launch_approved": true,
      "completeness": 0.0,
      "state": "finished",
      "avatar_src": "https://panoptes-uploads.zooniverse.org/project_avatar/174b892e-1a6a-44d3-9f39-bc1a3420a9ec.jpeg",
      "links": {}
    },
    {
      "id": "50",
      "display_name": "Disk Detective 1.0",
      "classifications_count": 0,
      "updated_at": "2023-03-02T05:21:10.373Z",
      "description": "Find the birthplace of planets. Help comb our galaxy, looking for stars that could harbour planet-forming disks. ",
      "slug": "zooniverse/disk-detective-1-dot-0",
      "redirect": "https://www.zooniverse.org/projects/ssilverberg/disk-detective",
      "launch_approved": true,
      "completeness": 0.0,
      "state": "finished",
      "avatar_src": "https://panoptes-uploads.zooniverse.org/project_avatar/6c0b365d-fe0d-4628-b36d-1bc6e583fef2.jpeg",
      "links": {}
    },
    {
      "id": "48",
      "display_name": "Operation War Diary",
      "classifications_count": 0,
      "updated_at": "2023-03-02T05:01:12.788Z",
      "description": "Explore soldiers' diaries from the First World War. Annotate and tag diaries from the First World War. ",
      "slug": "zooniverse/operation-war-diary",
      "redirect": "http://operationwardiary.org/#/",
      "launch_approved": true,
      "completeness": 0.0,
      "state": "finished",
      "avatar_src": "https://panoptes-uploads.zooniverse.org/project_avatar/8a874ad1-008c-4b1f-a68f-c66abd7fdc9f.jpeg",
      "links": {}
    },
    {
      "id": "47",
      "display_name": "Radio Galaxy Zoo",
      "classifications_count": 0,
      "updated_at": "2023-03-02T05:16:02.076Z",
      "description": "Match growing black holes to their jets. We need help to compare infrared and radio data to spot black holes.",
      "slug": "zooniverse/radio-galaxy-zoo",
      "redirect": "http://radio.galaxyzoo.org/#/",
      "launch_approved": true,
      "completeness": 0.0,
      "state": "finished",
      "avatar_src": "https://panoptes-uploads.zooniverse.org/project_avatar/8887fa98-c149-461f-99d2-aafceef25a6b.jpeg",
      "links": {}
    },
    {
      "id": "46",
      "display_name": "Plankton Portal Ouroboros",
      "classifications_count": 0,
      "updated_at": "2023-03-02T04:21:36.700Z",
      "description": "Dive into the planktonic world. No plankton means no ocean life. Identify different plankton to assess the health of our seas.",
      "slug": "zooniverse/plankton-portal-ouroboros",
      "redirect": "http://planktonportal.org/#/",
      "launch_approved": true,
      "completeness": 0.0,
      "state": "finished",
      "avatar_src": "https://panoptes-uploads.zooniverse.org/project_avatar/420b2e5e-3181-400e-8e09-3c92849c8863.jpeg",
      "links": {}
    },
    {
      "id": "45",
      "display_name": "Worm Watch Lab",
      "classifications_count": 0,
      "updated_at": "2023-03-02T05:07:26.878Z",
      "description": "Track genetic mysteries. We can better understand how our genes work by spotting the worms laying eggs. ",
      "slug": "zooniverse/worm-watch-lab",
      "redirect": "http://wormwatchlab.org/#/",
      "launch_approved": true,
      "completeness": 0.0,
      "state": "finished",
      "avatar_src": "https://panoptes-uploads.zooniverse.org/project_avatar/bbcb1ca2-80fd-490e-ab0c-1d3fc83dd358.jpeg",
      "links": {}
    },
    {
      "id": "41",
      "display_name": "Planet Four Ouroboros",
      "classifications_count": 0,
      "updated_at": "2023-03-02T04:12:21.556Z",
      "description": "Explore the Red Planet. Planetary scientists need your help to discover what the weather is like on Mars. ",
      "slug": "zooniverse/planet-four-ouroboros",
      "redirect": "http://planetfour.org/#/",
      "launch_approved": true,
      "completeness": 0.0,
      "state": "finished",
      "avatar_src": "https://panoptes-uploads.zooniverse.org/project_avatar/ea12f707-41f3-440f-99e0-5e39f8edb414.jpeg",
      "links": {}
    },
    {
      "id": "39",
      "display_name": "Andromeda Project",
      "classifications_count": 1008,
      "updated_at": "2023-03-02T04:06:04.414Z",
      "description": "Help researchers hunt for star clusters in the Andromeda galaxy.",
      "slug": "zooniverse/andromeda-project",
      "redirect": "",
      "launch_approved": true,
      "completeness": 1.0,
      "state": "finished",
      "avatar_src": "https://panoptes-uploads.zooniverse.org/project_avatar/e9d68b60-43d8-4fc9-b55c-ebf72f8c7bf2.jpeg",
      "links": {}
    },
    {
      "id": "38",
      "display_name": "Cell Slider",
      "classifications_count": 0,
      "updated_at": "2023-03-02T04:21:53.910Z",
      "description": "Analyse real life cancer data. You can help scientists from the world's largest cancer research institution find cures for cancer.",
      "slug": "zooniverse/cell-slider",
      "redirect": "http://cellslider.net",
      "launch_approved": true,
      "completeness": 0.0,
      "state": "finished",
      "avatar_src": "https://panoptes-uploads.zooniverse.org/project_avatar/459a8744-2a2c-434a-863e-61aa539c2043.jpeg",
      "links": {}
    },
    {
      "id": "37",
      "display_name": "Bat Detective",
      "classifications_count": 0,
      "updated_at": "2023-03-02T05:17:05.510Z",
      "description": "You're hot on the trail of bats! Help scientists characterise bat calls recorded by citizen scientists.",
      "slug": "zooniverse/bat-detective",
      "redirect": "http://batdetective.org/#!/",
      "launch_approved": true,
      "completeness": 0.0,
      "state": "finished",
      "avatar_src": "https://panoptes-uploads.zooniverse.org/project_avatar/8fc06440-a7b9-4b6a-ba93-8b153e9daa72.jpeg",
      "links": {}
    },
    {
      "id": "36",
      "display_name": "Cyclone Center",
      "classifications_count": 0,
      "updated_at": "2023-03-02T05:20:11.789Z",
      "description": "Classify over 30 years of tropical cyclone data. Scientists at NOAA's National Climatic Data Center need your help. ",
      "slug": "zooniverse/cyclone-center",
      "redirect": "http://cyclonecenter.org/#/",
      "launch_approved": true,
      "completeness": 0.0,
      "state": "finished",
      "avatar_src": "https://panoptes-uploads.zooniverse.org/project_avatar/443eb5a0-1053-431a-b9fb-648c507423cd.jpeg",
      "links": {}
    }
  ],
  "linked": {
    "avatars": [
      {
        "id": "757136",
        "href": "/projects/245/avatar",
        "src": "https://panoptes-uploads.zooniverse.org/project_avatar/318e2936-9fdc-4b77-a731-b61404af1da2.png",
        "content_type": "image/png",
        "media_type": "project_avatar",
        "external_link": false,
        "created_at": "2015-08-28T15:19:10.541Z",
        "metadata": null,
        "updated_at": "2015-08-28T15:19:10.541Z",
        "links": {
          "linked": {
            "href": "/projects/245",
            "id": "245",
            "type": "projects"
          }
        }
      },
      {
        "id": "462006",
        "href": "/projects/11/avatar",
        "src": "https://panoptes-uploads.zooniverse.org/project_avatar/04f69d43-abec-4851-ad56-d59b99a893aa.jpeg",
        "content_type": "image/jpeg",
        "media_type": "project_avatar",
        "external_link": false,
        "created_at": "2015-05-28T20:10:39.838Z",
        "metadata": null,
        "updated_at": "2015-05-28T20:10:39.838Z",
        "links": {
          "linked": {
            "href": "/projects/11",
            "id": "11",
            "type": "projects"
          }
        }
      },
      {
        "id": "618282",
        "href": "/projects/59/avatar",
        "src": "https://panoptes-uploads.zooniverse.org/project_avatar/d71f9499-b955-4f05-bf7a-74465db70452.jpeg",
        "content_type": "image/jpeg",
        "media_type": "project_avatar",
        "external_link": false,
        "created_at": "2015-07-22T19:37:02.575Z",
        "metadata": null,
        "updated_at": "2015-07-22T19:37:02.575Z",
        "links": {
          "linked": {
            "href": "/projects/59",
            "id": "59",
            "type": "projects"
          }
        }
      },
      {
        "id": "618301",
        "href": "/projects/60/avatar",
        "src": "https://panoptes-uploads.zooniverse.org/project_avatar/ddfe31cf-2d16-48bc-835b-5ae6c727afc3.jpeg",
        "content_type": "image/jpeg",
        "media_type": "project_avatar",
        "external_link": false,
        "created_at": "2015-07-22T20:55:50.796Z",
        "metadata": null,
        "updated_at": "2015-07-22T20:55:50.796Z",
        "links": {
          "linked": {
            "href": "/projects/60",
            "id": "60",
            "type": "projects"
          }
        }
      },
      {
        "id": "618279",
        "href": "/projects/58/avatar",
        "src": "https://panoptes-uploads.zooniverse.org/project_avatar/7647ea52-d175-4920-b8e2-1ba595017918.jpeg",
        "content_type": "image/jpeg",
        "media_type": "project_avatar",
        "external_link": false,
        "created_at": "2015-07-22T19:29:24.648Z",
        "metadata": null,
        "updated_at": "2015-07-22T19:29:24.648Z",
        "links": {
          "linked": {
            "href": "/projects/58",
            "id": "58",
            "type": "projects"
          }
        }
      },
      {
        "id": "618277",
        "href": "/projects/56/avatar",
        "src": "https://panoptes-uploads.zooniverse.org/project_avatar/f6a09e22-771a-4d54-a7bf-0558d2d5cdc8.jpeg",
        "content_type": "image/jpeg",
        "media_type": "project_avatar",
        "external_link": false,
        "created_at": "2015-07-22T19:20:18.027Z",
        "metadata": null,
        "updated_at": "2015-07-22T19:20:18.027Z",
        "links": {
          "linked": {
            "href": "/projects/56",
            "id": "56",
            "type": "projects"
          }
        }
      },
      {
        "id": "618297",
        "href": "/projects/54/avatar",
        "src": "https://panoptes-uploads.zooniverse.org/project_avatar/d4350f1e-58b8-4a88-a7c9-56659df14635.jpeg",
        "content_type": "image/jpeg",
        "media_type": "project_avatar",
        "external_link": false,
        "created_at": "2015-07-22T20:42:54.305Z",
        "metadata": null,
        "updated_at": "2015-07-22T20:42:54.305Z",
        "links": {
          "linked": {
            "href": "/projects/54",
            "id": "54",
            "type": "projects"
          }
        }
      },
      {
        "id": "618285",
        "href": "/projects/53/avatar",
        "src": "https://panoptes-uploads.zooniverse.org/project_avatar/ce958017-4989-4e23-83fc-6da6056a8d0c.jpeg",
        "content_type": "image/jpeg",
        "media_type": "project_avatar",
        "external_link": false,
        "created_at": "2015-07-22T19:52:06.124Z",
        "metadata": null,
        "updated_at": "2015-07-22T19:52:06.124Z",
        "links": {
          "linked": {
            "href": "/projects/53",
            "id": "53",
            "type": "projects"
          }
        }
      },
      {
        "id": "618291",
        "href": "/projects/52/avatar",
        "src": "https://panoptes-uploads.zooniverse.org/project_avatar/816a2876-f134-41c5-bd59-08a76258d017.jpeg",
        "content_type": "image/jpeg",
        "media_type": "project_avatar",
        "external_link": false,
        "created_at": "2015-07-22T20:22:46.227Z",
        "metadata": null,
        "updated_at": "2015-07-22T20:22:46.227Z",
        "links": {
          "linked": {
            "href": "/projects/52",
            "id": "52",
            "type": "projects"
          }
        }
      },
      {
        "id": "618293",
        "href": "/projects/51/avatar",
        "src": "https://panoptes-uploads.zooniverse.org/project_avatar/174b892e-1a6a-44d3-9f39-bc1a3420a9ec.jpeg",
        "content_type": "image/jpeg",
        "media_type": "project_avatar",
        "external_link": false,
        "created_at": "2015-07-22T20:28:18.401Z",
        "metadata": null,
        "updated_at": "2015-07-22T20:28:18.401Z",
        "links": {
          "linked": {
            "href": "/projects/51",
            "id": "51",
            "type": "projects"
          }
        }
      },
      {
        "id": "618284",
        "href": "/projects/50/avatar",
        "src": "https://panoptes-uploads.zooniverse.org/project_avatar/6c0b365d-fe0d-4628-b36d-1bc6e583fef2.jpeg",
        "content_type": "image/jpeg",
        "media_type": "project_avatar",
        "external_link": false,
        "created_at": "2015-07-22T19:50:10.714Z",
        "metadata": null,
        "updated_at": "2015-07-22T19:50:10.714Z",
        "links": {
          "linked": {
            "href": "/projects/50",
            "id": "50",
            "type": "projects"
          }
        }
      },
      {
        "id": "618281",
        "href": "/projects/48/avatar",
        "src": "https://panoptes-uploads.zooniverse.org/project_avatar/8a874ad1-008c-4b1f-a68f-c66abd7fdc9f.jpeg",
        "content_type": "image/jpeg",
        "media_type": "project_avatar",
        "external_link": false,
        "created_at": "2015-07-22T19:35:01.807Z",
        "metadata": null,
        "updated_at": "2015-07-22T19:35:01.807Z",
        "links": {
          "linked": {
            "href": "/projects/48",
            "id": "48",
            "type": "projects"
          }
        }
      },
      {
        "id": "618295",
        "href": "/projects/47/avatar",
        "src": "https://panoptes-uploads.zooniverse.org/project_avatar/8887fa98-c149-461f-99d2-aafceef25a6b.jpeg",
        "content_type": "image/jpeg",
        "media_type": "project_avatar",
        "external_link": false,
        "created_at": "2015-07-22T20:35:33.426Z",
        "metadata": null,
        "updated_at": "2015-07-22T20:35:33.426Z",
        "links": {
          "linked": {
            "href": "/projects/47",
            "id": "47",
            "type": "projects"
          }
        }
      },
      {
        "id": "618292",
        "href": "/projects/46/avatar",
        "src": "https://panoptes-uploads.zooniverse.org/project_avatar/420b2e5e-3181-400e-8e09-3c92849c8863.jpeg",
        "content_type": "image/jpeg",
        "media_type": "project_avatar",
        "external_link": false,
        "created_at": "2015-07-22T20:23:15.348Z",
        "metadata": null,
        "updated_at": "2015-07-22T20:23:15.348Z",
        "links": {
          "linked": {
            "href": "/projects/46",
            "id": "46",
            "type": "projects"
          }
        }
      },
      {
        "id": "618286",
        "href": "/projects/45/avatar",
        "src": "https://panoptes-uploads.zooniverse.org/project_avatar/bbcb1ca2-80fd-490e-ab0c-1d3fc83dd358.jpeg",
        "content_type": "image/jpeg",
        "media_type": "project_avatar",
        "external_link": false,
        "created_at": "2015-07-22T19:55:54.059Z",
        "metadata": null,
        "updated_at": "2015-07-22T19:55:54.059Z",
        "links": {
          "linked": {
            "href": "/projects/45",
            "id": "45",
            "type": "projects"
          }
        }
      },
      {
        "id": "618527",
        "href": "/projects/41/avatar",
        "src": "https://panoptes-uploads.zooniverse.org/project_avatar/ea12f707-41f3-440f-99e0-5e39f8edb414.jpeg",
        "content_type": "image/jpeg",
        "media_type": "project_avatar",
        "external_link": false,
        "created_at": "2015-07-24T20:30:31.435Z",
        "metadata": null,
        "updated_at": "2015-07-24T20:30:31.435Z",
        "links": {
          "linked": {
            "href": "/projects/41",
            "id": "41",
            "type": "projects"
          }
        }
      },
      {
        "id": "516772",
        "href": "/projects/39/avatar",
        "src": "https://panoptes-uploads.zooniverse.org/project_avatar/e9d68b60-43d8-4fc9-b55c-ebf72f8c7bf2.jpeg",
        "content_type": "image/jpeg",
        "media_type": "project_avatar",
        "external_link": false,
        "created_at": "2015-07-01T21:20:28.676Z",
        "metadata": null,
        "updated_at": "2015-07-01T21:20:28.676Z",
        "links": {
          "linked": {
            "href": "/projects/39",
            "id": "39",
            "type": "projects"
          }
        }
      },
      {
        "id": "618424",
        "href": "/projects/38/avatar",
        "src": "https://panoptes-uploads.zooniverse.org/project_avatar/459a8744-2a2c-434a-863e-61aa539c2043.jpeg",
        "content_type": "image/jpeg",
        "media_type": "project_avatar",
        "external_link": false,
        "created_at": "2015-07-23T15:33:46.555Z",
        "metadata": null,
        "updated_at": "2015-07-23T15:33:46.555Z",
        "links": {
          "linked": {
            "href": "/projects/38",
            "id": "38",
            "type": "projects"
          }
        }
      },
      {
        "id": "618294",
        "href": "/projects/37/avatar",
        "src": "https://panoptes-uploads.zooniverse.org/project_avatar/8fc06440-a7b9-4b6a-ba93-8b153e9daa72.jpeg",
        "content_type": "image/jpeg",
        "media_type": "project_avatar",
        "external_link": false,
        "created_at": "2015-07-22T20:31:41.300Z",
        "metadata": null,
        "updated_at": "2015-07-22T20:31:41.300Z",
        "links": {
          "linked": {
            "href": "/projects/37",
            "id": "37",
            "type": "projects"
          }
        }
      },
      {
        "id": "618283",
        "href": "/projects/36/avatar",
        "src": "https://panoptes-uploads.zooniverse.org/project_avatar/443eb5a0-1053-431a-b9fb-648c507423cd.jpeg",
        "content_type": "image/jpeg",
        "media_type": "project_avatar",
        "external_link": false,
        "created_at": "2015-07-22T19:48:10.306Z",
        "metadata": null,
        "updated_at": "2015-07-22T19:48:10.306Z",
        "links": {
          "linked": {
            "href": "/projects/36",
            "id": "36",
            "type": "projects"
          }
        }
      }
    ]
  },
  "links": {
    "projects.workflows": {
      "href": "/workflows?project_id={projects.id}",
      "type": "workflows"
    },
    "projects.active_workflows": {
      "href": "/workflows?project_id={projects.id}",
      "type": "active_workflows"
    },
    "projects.subject_sets": {
      "href": "/subject_sets?project_id={projects.id}",
      "type": "subject_sets"
    },
    "projects.project_roles": {
      "href": "/project_roles?project_id={projects.id}",
      "type": "project_roles"
    },
    "projects.pages": {
      "href": "/projects/{projects.id}/pages",
      "type": "project_pages"
    },
    "projects.organization": {
      "href": "/organizations/{projects.organization}",
      "type": "organizations"
    },
    "projects.attached_images": {
      "href": "/projects/{projects.id}/attached_images",
      "type": "media"
    },
    "projects.owner": {
      "href": "/{projects.owner.href}",
      "type": "owners"
    },
    "projects.avatar": {
      "href": "/projects/{projects.id}/avatar",
      "type": "media"
    },
    "projects.background": {
      "href": "/projects/{projects.id}/background",
      "type": "media"
    },
    "projects.classifications_export": {
      "href": "/projects/{projects.id}/classifications_export",
      "type": "media"
    },
    "projects.subjects_export": {
      "href": "/projects/{projects.id}/subjects_export",
      "type": "media"
    }
  },
  "meta": {
    "projects": {
      "page": 5,
      "page_size": 20,
      "count": 106,
      "include": [
        "avatar"
      ],
      "page_count": 6,
      "previous_page": 4,
      "next_page": 6,
      "first_href": "/projects?include=avatar\u0026sort=-launch_date\u0026launch_approved=true\u0026state=1",
      "previous_href": "/projects?page=4\u0026include=avatar\u0026sort=-launch_date\u0026launch_approved=true\u0026state=1",
      "next_href": "/projects?page=6\u0026include=avatar\u0026sort=-launch_date\u0026launch_approved=true\u0026state=1",
      "last_href": "/projects?page=6\u0026include=avatar\u0026sort=-launch_date\u0026launch_approved=true\u0026state=1"
    }
  }
}