{
  "projects": [
    {
      "id": "9860",
      "display_name": "Nest Quest Go!: Mountain Bluebirds",
      "classifications_count": 131109,
      "updated_at": "2023-03-02T05:13:27.547Z",
      "description": "Journey with us to reveal the mysterious lives of Mountain Bluebirds",
      "slug": "brbcornell/nest-quest-go-mountain-bluebirds",
      "redirect": "",
      "launch_approved": true,
      "completeness": 1.0,
      "state": "finished",
      "avatar_src": "https://panoptes-uploads.zooniverse.org/project_avatar/127005f3-7ef2-44a6-9b98-28979c6af154.jpeg",
      "links": {}
    },
    {
      "id": "8899",
      "display_name": "Nest Quest Go: Nuthatches",
      "classifications_count": 32269,
      "updated_at": "2023-03-02T05:20:11.862Z",
      "description": "Bring to light the lives of these 'nutty' cavity-nesters.",
      "slug": "brbcornell/nest-quest-go-nuthatches",
      "redirect": "",
      "launch_approved": true,
      "completeness": 1.0,
      "state": "finished",
      "avatar_src": "https://panoptes-uploads.zooniverse.org/project_avatar/2d558cf4-956c-4fc4-89fb-c28ca757e567.jpeg",
      "links": {}
    },
    {
      "id": "9445",
      "display_name": "Ensemble@Yale",
      "classifications_count": 3188,
      "updated_at": "2023-03-02T04:17:10.842Z",
      "description": "Transcribe Programs to Create a Database of Yale Theater History",
      "slug": "haasarts/ensemble-at-yale",
      "redirect": "",
      "launch_approved": true,
      "completeness": 1.0,
      "state": "finished",
      "avatar_src": "https://panoptes-uploads.zooniverse.org/project_avatar/bd33ff79-eee8-4bb2-a418-d3b3f168dbe5.jpeg",
      "links": {}
    },
    {
      "id": "7438",
      "display_name": "Mapping Historic Skies",
      "classifications_count": 63684,
      "updated_at": "2023-03-02T05:14:50.275Z",
      "description": "Help us identify constellations in celestial maps from the Adler Planetarium's collection",
      "slug": "webster-institute/mapping-historic-skies",
      "redirect": "",
      "launch_approved": true,
      "completeness": 1.0,
      "state": "finished",
      "avatar_src": "https://panoptes-uploads.zooniverse.org/project_avatar/00f8aa68-d3f0-4866-a08b-93b0868c872d.jpeg",
      "links": {}
    },
    {
      "id": "10133",
      "display_name": "Notes from Nature - How Weird is That?",
      "classifications_count": 65333,
      "updated_at": "2023-03-02T04:16:27.082Z",
      "description": "Help train machines to identify anomalies in nature.",
      "slug": "austinmast/notes-from-nature-how-weird-is-that",
      "redirect": "",
      "launch_approved": true,
      "completeness": 1.0,
      "state": "finished",
      "avatar_src": "https://panoptes-uploads.zooniverse.org/project_avatar/c318dd6d-55ab-45ba-a93d-c67195b79352.png",
      "links": {}
    },
    {
      "id": "7653",
      "display_name": "NestCams",
      "classifications_count": 417443,
      "updated_at": "2023-03-02T05:09:34.146Z",
      "description": "Watch birds on their nests and help us find out more about their breeding behaviour!",
      "slug": "spotteron/nestcams",
      "redirect": "",
      "launch_approved": true,
      "completeness": 1.0,
      "state": "finished",
      "avatar_src": "https://panoptes-uploads.zooniverse.org/project_avatar/511a73f3-4144-4e30-9f1e-b6be48e1da5c.png",
      "links": {}
    },
    {
      "id": "9907",
      "display_name": "Planetary Response Network: Hurricane Dorian",
      "classifications_count": 251164,
      "updated_at": "2023-03-02T05:08:21.540Z",
      "description": "Join in the effort to help those affected by Hurricane Dorian",
      "slug": "mrniaboc/planetary-response-network-hurricane-dorian",
      "redirect": "",
      "launch_approved": true,
      "completeness": 1.0,
      "state": "finished",
      "avatar_src": "https://panoptes-uploads.zooniverse.org/project_avatar/6c7a9857-b4dd-49e4-b5ae-5ad10a955a66.jpeg",
      "links": {}
    },
    {
      "id": "9814",
      "display_name": "Notes from Nature - NYBG",
      "classifications_count": 208615,
      "updated_at": "2023-03-02T05:04:45.786Z",
      "description": "Discover historic specimens and drive global plant research at one of the world's largest herbaria!",
      "slug": "md68135/notes-from-nature-nybg",
      "redirect": "",
      "launch_approved": true,
      "completeness": 1.0,
      "state": "finished",
      "avatar_src": "https://panoptes-uploads.zooniverse.org/project_avatar/4b26d555-9bb0-42f3-9587-bbf579bd8e79.jpeg",
      "links": {}
    },
    {
      "id": "9204",
      "display_name": "Nest Quest Go: Western Bluebirds",
      "classifications_count": 79057,
      "updated_at": "2023-03-02T05:17:26.135Z",
      "description": "Learn about and help document the wonders of nesting Western Bluebirds.",
      "slug": "brbcornell/nest-quest-go-western-bluebirds",
      "redirect": "",
      "launch_approved": true,
      "completeness": 1.0,
      "state": "finished",
      "avatar_src": "https://panoptes-uploads.zooniverse.org/project_avatar/622325b1-0736-44af-8c11-ce5d9992e9b2.jpeg",
      "links": {}
    },
    {
      "id": "8898",
      "display_name": "Nest Quest Go: Chickadee-dee",
      "classifications_count": 98086,
      "updated_at": "2023-03-02T05:10:14.013Z",
      "description": "Discover the nesting patterns of these gregarious sprightly birds.",
      "slug": "brbcornell/nest-quest-go-chickadee-dee",
      "redirect": "",
      "launch_approved": true,
      "completeness": 1.0,
      "state": "finished",
      "avatar_src": "https://panoptes-uploads.zooniverse.org/project_avatar/c4904507-897c-46fe-a419-5c34c3f55ec4.jpeg",
      "links": {}
    },
    {
      "id": "8897",
      "display_name": "Nest Quest Go: American Kestrels",
      "classifications_count": 37273,
      "updated_at": "2023-03-02T05:07:11.854Z",
      "description": "Discover the nesting patterns of this small, but skilled raptor.",
      "slug": "brbcornell/nest-quest-go-american-kestrels",
      "redirect": "",
      "launch_approved": true,
      "completeness": 1.0,
      "state": "finished",
      "avatar_src": "https://panoptes-uploads.zooniverse.org/project_avatar/6eb304e5-10b6-4722-a375-c0955a1a4909.jpeg",
      "links": {}
    },
    {
      "id": "8900",
      "display_name": "Nest Quest Go: Warblers",
      "classifications_count": 289762,
      "updated_at": "2023-03-02T05:17:52.575Z",
      "description": "Uncover secrets to North American warblers by transcribing their historical nest records.",
      "slug": "brbcornell/nest-quest-go-warblers",
      "redirect": "",
      "launch_approved": true,
      "completeness": 1.0,
      "state": "finished",
      "avatar_src": "https://panoptes-uploads.zooniverse.org/project_avatar/49497c9e-1dd3-4e6e-94c6-cdefad9e593d.jpeg",
      "links": {}
    },
    {
      "id": "9356",
      "display_name": "Notes from Nature - Butterflies",
      "classifications_count": 47192,
      "updated_at": "2023-03-02T04:03:06.118Z",
      "description": "Butterfly expeditions on Notes from Nature",
      "slug": "md68135/notes-from-nature-butterflies",
      "redirect": "",
      "launch_approved": true,
      "completeness": 1.0,
      "state": "finished",
      "avatar_src": "https://panoptes-uploads.zooniverse.org/project_avatar/65eff628-7eac-446d-a789-ed9d30b43478.jpeg",
      "links": {}
    },
    {
      "id": "8361",
      "display_name": "Castaway",
      "classifications_count": 0,
      "updated_at": "2023-03-02T05:01:02.718Z",
      "description": "Unleash the Potential of Historic Research Vessel Logs",
      "slug": "zhcreech/castaway",
      "redirect": "",
      "launch_approved": true,
      "completeness": 0.0,
      "state": "finished",
      "avatar_src": "https://panoptes-uploads.zooniverse.org/project_avatar/85184354-5417-465f-a582-2f48c33630b2.jpeg",
      "links": {}
    },
    {
      "id": "7174",
      "display_name": "Hawk Talk",
      "classifications_count": 47823,
      "updated_at": "2023-03-02T05:09:54.080Z",
      "description": "Watch and listen to help us better understand Red-Tailed Hawk vocalizations and behavior.",
      "slug": "rachael-cornell/hawk-talk",
      "redirect": "",
      "launch_approved": true,
      "completeness": 1.0,
      "state": "finished",
      "avatar_src": "https://panoptes-uploads.zooniverse.org/project_avatar/8327f9c1-0b03-4404-83e9-b55780910be2.jpeg",
      "links": {}
    },
    {
      "id": "4405",
      "display_name": "Decoding Punch Cards",
      "classifications_count": 274146,
      "updated_at": "2023-03-02T05:04:29.264Z",
      "description": "Help us remember the 25,926 men and women who brought a \"bit of home\" to the allied forces during WWI.",
      "slug": "buzzbean/decoding-punch-cards",
      "redirect": "",
      "launch_approved": true,
      "completeness": 1.0,
      "state": "finished",
      "avatar_src": "https://panoptes-uploads.zooniverse.org/project_avatar/2d9013f7-f284-491a-9e14-14683fe5e145.jpeg",
      "links": {}
    },
    {
      "id": "5103",
      "display_name": "Battling Birds",
      "classifications_count": 104053,
      "updated_at": "2023-03-02T05:20:07.202Z",
      "description": "Bird feeders offer great opportunities to observe complex species interactions. Help us understand them!",
      "slug": "canagica/battling-birds",
      "redirect": "",
      "launch_approved": true,
      "completeness": 1.0,
      "state": "finished",
      "avatar_src": "https://panoptes-uploads.zooniverse.org/project_avatar/d4e20747-1059-42aa-ae3b-b039ab41980a.jpeg",
      "links": {}
    },
    {
      "id": "5372",
      "display_name": "Where are my body organs? ",
      "classifications_count": 84386,
      "updated_at": "2023-03-02T05:14:16.775Z",
      "description": "Can you determine the location of the organs and structures within the human body? ",
      "slug": "h-spiers/where-are-my-body-organs",
      "redirect": "",
      "launch_approved": true,
      "completeness": 0.0,
      "state": "finished",
      "avatar_src": "https://panoptes-uploads.zooniverse.org/project_avatar/fe9cc866-234f-4bf9-8019-b7d4db48efa1.jpeg",
      "links": {}
    },
    {
      "id": "5551",
      "display_name": "The American Soldier",
      "classifications_count": 0,
      "updated_at": "2023-03-02T05:16:37.099Z",
      "description": "Thanks to thousands of Zooniverse citizen-archivists, on 7 December 2021, the 80th anniversary of the Pearl Harbor attack, THE AMERICAN SOLDIER IN WORLD WAR II website was launched @ americansoldierww2.org. Our deep gratitude to all who contributed.",
      "slug": "tkotwim/the-american-soldier",
      "redirect": "",
      "launch_approved": true,
      "completeness": 0.0,
      "state": "finished",
      "avatar_src": "https://panoptes-uploads.zooniverse.org/project_avatar/ca03c413-8d8b-4aca-ae81-c67e4e634850.jpeg",
      "links": {}
    },
    {
      "id": "5590",
      "display_name": "Galaxy Builder",
      "classifications_count": 1613,
      "updated_at": "2023-03-02T04:06:00.852Z",
      "description": "Piece together the components of galaxies to help us understand how they assembled",
      "slug": "tingard/galaxy-builder",
      "redirect": "",
      "launch_approved": true,
      "completeness": 1.0,
      "state": "finished",
      "avatar_src": "https://panoptes-uploads.zooniverse.org/project_avatar/d1f8f97e-7849-43e6-9a8e-07b0a0c61b5c.jpeg",
      "links": {}
    }
  ],
  "linked": {
    "avatars": [
      {
        "id": "62804395",
        "href": "/projects/9860/avatar",
        "src": "https://panoptes-uploads.zooniverse.org/project_avatar/127005f3-7ef2-44a6-9b98-28979c6af154.jpeg",
        "content_type": "image/jpeg",
        "media_type": "project_avatar",
        "external_link": false,
        "created_at": "2019-09-05T15:05:08.856Z",
        "metadata": null,
        "updated_at": "2019-09-05T15:05:08.856Z",
        "links": {
          "linked": {
            "href": "/projects/9860",
            "id": "9860",
            "type": "projects"
          }
        }
      },
      {
        "id": "62835383",
        "href": "/projects/8899/avatar",
        "src": "https://panoptes-uploads.zooniverse.org/project_avatar/2d558cf4-956c-4fc4-89fb-c28ca757e567.jpeg",
        "content_type": "image/jpeg",
        "media_type": "project_avatar",
        "external_link": false,
        "created_at": "2019-09-06T01:19:08.127Z",
        "metadata": null,
        "updated_at": "2019-09-06T01:19:08.127Z",
        "links": {
          "linked": {
            "href": "/projects/8899",
            "id": "8899",
            "type": "projects"
          }
        }
      },
      {
        "id": "57772144",
        "href": "/projects/9445/avatar",
        "src": "https://panoptes-uploads.zooniverse.org/project_avatar/bd33ff79-eee8-4bb2-a418-d3b3f168dbe5.jpeg",
        "content_type": "image/jpeg",
        "media_type": "project_avatar",
        "external_link": false,
        "created_at": "2019-07-03T19:55:22.927Z",
        "metadata": null,
        "updated_at": "2019-07-03T19:55:22.927Z",
        "links": {
          "linked": {
            "href": "/projects/9445",
            "id": "9445",
            "type": "projects"
          }
        }
      },
      {
        "id": "65584706",
        "href": "/projects/7438/avatar",
        "src": "https://panoptes-uploads.zooniverse.org/project_avatar/00f8aa68-d3f0-4866-a08b-93b0868c872d.jpeg",
        "content_type": "image/jpeg",
        "media_type": "project_avatar",
        "external_link": false,
        "created_at": "2019-11-04T17:09:19.158Z",
        "metadata": null,
        "updated_at": "2019-11-04T17:09:19.158Z",
        "links": {
          "linked": {
            "href": "/projects/7438",
            "id": "7438",
            "type": "projects"
          }
        }
      },
      {
        "id": "65081963",
        "href": "/projects/10133/avatar",
        "src": "https://panoptes-uploads.zooniverse.org/project_avatar/c318dd6d-55ab-45ba-a93d-c67195b79352.png",
        "content_type": "image/png",
        "media_type": "project_avatar",
        "external_link": false,
        "created_at": "2019-10-15T12:23:39.355Z",
        "metadata": null,
        "updated_at": "2019-10-15T12:23:39.355Z",
        "links": {
          "linked": {
            "href": "/projects/10133",
            "id": "10133",
            "type": "projects"
          }
        }
      },
      {
        "id": "45982525",
        "href": "/projects/7653/avatar",
        "src": "https://panoptes-uploads.zooniverse.org/project_avatar/511a73f3-4144-4e30-9f1e-b6be48e1da5c.png",
        "content_type": "image/png",
        "media_type": "project_avatar",
        "external_link": false,
        "created_at": "2019-01-23T16:37:26.463Z",
        "metadata": null,
        "updated_at": "2019-01-23T16:37:26.463Z",
        "links": {
          "linked": {
            "href": "/projects/7653",
            "id": "7653",
            "type": "projects"
          }
        }
      },
      {
        "id": "62755240",
        "href": "/projects/9907/avatar",
        "src": "https://panoptes-uploads.zooniverse.org/project_avatar/6c7a9857-b4dd-49e4-b5ae-5ad10a955a66.jpeg",
        "content_type": "image/jpeg",
        "media_type": "project_avatar",
        "external_link": false,
        "created_at": "2019-09-03T16:13:41.142Z",
        "metadata": null,
        "updated_at": "2019-09-03T16:13:41.142Z",
        "links": {
          "linked": {
            "href": "/projects/9907",
            "id": "9907",
            "type": "projects"
          }
        }
      },
      {
        "id": "62755248",
        "href": "/projects/9814/avatar",
        "src": "https://panoptes-uploads.zooniverse.org/project_avatar/4b26d555-9bb0-42f3-9587-bbf579bd8e79.jpeg",
        "content_type": "image/jpeg",
        "media_type": "project_avatar",
        "external_link": false,
        "created_at": "2019-09-03T16:48:36.121Z",
        "metadata": null,
        "updated_at": "2019-09-03T16:48:36.121Z",
        "links": {
          "linked": {
            "href": "/projects/9814",
            "id": "9814",
            "type": "projects"
          }
        }
      },
      {
        "id": "55506048",
        "href": "/projects/9204/avatar",
        "src": "https://panoptes-uploads.zooniverse.org/project_avatar/622325b1-0736-44af-8c11-ce5d9992e9b2.jpeg",
        "content_type": "image/jpeg",
        "media_type": "project_avatar",
        "external_link": false,
        "created_at": "2019-06-03T16:07:56.844Z",
        "metadata": null,
        "updated_at": "2019-06-03T16:07:56.844Z",
        "links": {
          "linked": {
            "href": "/projects/9204",
            "id": "9204",
            "type": "projects"
          }
        }
      },
      {
        "id": "50279932",
        "href": "/projects/8898/avatar",
        "src": "https://panoptes-uploads.zooniverse.org/project_avatar/c4904507-897c-46fe-a419-5c34c3f55ec4.jpeg",
        "content_type": "image/jpeg",
        "media_type": "project_avatar",
        "external_link": false,
        "created_at": "2019-04-03T00:37:33.879Z",
        "metadata": null,
        "updated_at": "2019-04-03T00:37:33.879Z",
        "links": {
          "linked": {
            "href": "/projects/8898",
            "id": "8898",
            "type": "projects"
          }
        }
      },
      {
        "id": "50333625",
        "href": "/projects/8897/avatar",
        "src": "https://panoptes-uploads.zooniverse.org/project_avatar/6eb304e5-10b6-4722-a375-c0955a1a4909.jpeg",
        "content_type": "image/jpeg",
        "media_type": "project_avatar",
        "external_link": false,
        "created_at": "2019-04-03T15:44:13.245Z",
        "metadata": null,
        "updated_at": "2019-04-03T15:44:13.245Z",
        "links": {
          "linked": {
            "href": "/projects/8897",
            "id": "8897",
            "type": "projects"
          }
        }
      },
      {
        "id": "99622419",
        "href": "/projects/8900/avatar",
        "src": "https://panoptes-uploads.zooniverse.org/project_avatar/49497c9e-1dd3-4e6e-94c6-cdefad9e593d.jpeg",
        "content_type": "image/jpeg",
        "media_type": "project_avatar",
        "external_link": false,
        "created_at": "2021-01-26T04:39:34.985Z",
        "metadata": null,
        "updated_at": "2021-01-26T04:39:34.985Z",
        "links": {
          "linked": {
            "href": "/projects/8900",
            "id": "8900",
            "type": "projects"
          }
        }
      },
      {
        "id": "55549440",
        "href": "/projects/9356/avatar",
        "src": "https://panoptes-uploads.zooniverse.org/project_avatar/65eff628-7eac-446d-a789-ed9d30b43478.jpeg",
        "content_type": "image/jpeg",
        "media_type": "project_avatar",
        "external_link": false,
        "created_at": "2019-06-04T17:09:33.299Z",
        "metadata": null,
        "updated_at": "2019-06-04T17:09:33.299Z",
        "links": {
          "linked": {
            "href": "/projects/9356",
            "id": "9356",
            "type": "projects"
          }
        }
      },
      {
        "id": "46762477",
        "href": "/projects/8361/avatar",
        "src": "https://panoptes-uploads.zooniverse.org/project_avatar/85184354-5417-465f-a582-2f48c33630b2.jpeg",
        "content_type": "image/jpeg",
        "media_type": "project_avatar",
        "external_link": false,
        "created_at": "2019-01-30T19:49:46.638Z",
        "metadata": null,
        "updated_at": "2019-01-30T19:49:46.638Z",
        "links": {
          "linked": {
            "href": "/projects/8361",
            "id": "8361",
            "type": "projects"
          }
        }
      },
      {
        "id": "46159602",
        "href": "/projects/7174/avatar",
        "src": "https://panoptes-uploads.zooniverse.org/project_avatar/8327f9c1-0b03-4404-83e9-b55780910be2.jpeg",
        "content_type": "image/jpeg",
        "media_type": "project_avatar",
        "external_link": false,
        "created_at": "2019-01-24T18:22:25.163Z",
        "metadata": null,
        "updated_at": "2019-01-24T18:22:25.163Z",
        "links": {
          "linked": {
            "href": "/projects/7174",
            "id": "7174",
            "type": "projects"
          }
        }
      },
      {
        "id": "27896265",
        "href": "/projects/4405/avatar",
        "src": "https://panoptes-uploads.zooniverse.org/project_avatar/2d9013f7-f284-491a-9e14-14683fe5e145.jpeg",
        "content_type": "image/jpeg",
        "media_type": "project_avatar",
        "external_link": false,
        "created_at": "2018-02-09T17:33:56.467Z",
        "metadata": null,
        "updated_at": "2018-02-09T17:33:56.467Z",
        "links": {
          "linked": {
            "href": "/projects/4405",
            "id": "4405",
            "type": "projects"
          }
        }
      },
      {
        "id": "41073702",
        "href": "/projects/5103/avatar",
        "src": "https://panoptes-uploads.zooniverse.org/project_avatar/d4e20747-1059-42aa-ae3b-b039ab41980a.jpeg",
        "content_type": "image/jpeg",
        "media_type": "project_avatar",
        "external_link": false,
        "created_at": "2018-11-01T18:46:50.496Z",
        "metadata": null,
        "updated_at": "2018-11-01T18:46:50.496Z",
        "links": {
          "linked": {
            "href": "/projects/5103",
            "id": "5103",
            "type": "projects"
          }
        }
      },
      {
        "id": "25140668",
        "href": "/projects/5372/avatar",
        "src": "https://panoptes-uploads.zooniverse.org/project_avatar/fe9cc866-234f-4bf9-8019-b7d4db48efa1.jpeg",
        "content_type": "image/jpeg",
        "media_type": "project_avatar",
        "external_link": false,
        "created_at": "2018-01-09T15:46:50.511Z",
        "metadata": null,
        "updated_at": "2018-01-09T15:46:50.511Z",
        "links": {
          "linked": {
            "href": "/projects/5372",
            "id": "5372",
            "type": "projects"
          }
        }
      },
      {
        "id": "35760322",
        "href": "/projects/5551/avatar",
        "src": "https://panoptes-uploads.zooniverse.org/project_avatar/ca03c413-8d8b-4aca-ae81-c67e4e634850.jpeg",
        "content_type": "image/jpeg",
        "media_type": "project_avatar",
        "external_link": false,
        "created_at": "2018-07-08T16:38:42.429Z",
        "metadata": null,
        "updated_at": "2018-07-08T16:38:42.429Z",
        "links": {
          "linked": {
            "href": "/projects/5551",
            "id": "5551",
            "type": "projects"
          }
        }
      },
      {
        "id": "30337250",
        "href": "/projects/5590/avatar",
        "src": "https://panoptes-uploads.zooniverse.org/project_avatar/d1f8f97e-7849-43e6-9a8e-07b0a0c61b5c.jpeg",
        "content_type": "image/jpeg",
        "media_type": "project_avatar",
        "external_link": false,
        "created_at": "2018-03-27T14:22:37.926Z",
        "metadata": null,
        "updated_at": "2018-03-27T14:22:37.926Z",
        "links": {
          "linked": {
            "href": "/projects/5590",
            "id": "5590",
            "type": "projects"
          }
        }
      }
    ]
  },
  "links": {
    "projects.workflows": {
      "href": "/workflows?project_id={projects.id}",
      "type": "workflows"
    },
    "projects.active_workflows": {
      "href": "/workflows?project_id={projects.id}",
      "type": "active_workflows"
    },
    "projects.subject_sets": {
      "href": "/subject_sets?project_id={projects.id}",
      "type": "subject_sets"
    },
    "projects.project_roles": {
      "href": "/project_roles?project_id={projects.id}",
      "type": "project_roles"
    },
    "projects.pages": {
      "href": "/projects/{projects.id}/pages",
      "type": "project_pages"
    },
    "projects.organization": {
      "href": "/organizations/{projects.organization}",
      "type": "organizations"
    },
    "projects.attached_images": {
      "href": "/projects/{projects.id}/attached_images",
      "type": "media"
    },
    "projects.owner": {
      "href": "/{projects.owner.href}",
      "type": "owners"
    },
    "projects.avatar": {
      "href": "/projects/{projects.id}/avatar",
      "type": "media"
    },
    "projects.background": {
      "href": "/projects/{projects.id}/background",
      "type": "media"
    },
    "projects.classifications_export": {
      "href": "/projects/{projects.id}/classifications_export",
      "type": "media"
    },
    "projects.subjects_export": {
      "href": "/projects/{projects.id}/subjects_export",
      "type": "media"
    }
  },
  "meta": {
    "projects": {
      "page": 3,
      "page_size": 20,
      "count": 106,
      "include": [
        "avatar"
      ],
      "page_count": 6,
      "previous_page": 2,
      "next_page": 4,
      "first_href": "/projects?include=avatar\u0026sort=-launch_date\u0026launch_approved=true\u0026state=1",
      "previous_href": "/projects?page=2\u0026include=avatar\u0026sort=-launch_date\u0026launch_approved=true\u0026state=1",
      "next_href": "/projects?page=4\u0026include=avatar\u0026sort=-launch_date\u0026launch_approved=true\u0026state=1",
      "last_href": "/projects?page=6\u0026include=avatar\u0026sort=-launch_date\u0026launch_approved=true\u0026state=1"
    }
  }
}